<?xml version="1.0" encoding="UTF-8" standalone="no"?>
<svg
   xmlns:dc="http://purl.org/dc/elements/1.1/"
   xmlns:cc="http://creativecommons.org/ns#"
   xmlns:rdf="http://www.w3.org/1999/02/22-rdf-syntax-ns#"
   xmlns:svg="http://www.w3.org/2000/svg"
   xmlns="http://www.w3.org/2000/svg"
   viewBox="0 0 342.56815 81.619316"
   version="1.1"
   id="svg2"
   height="87.0606"
   width="365.40604">
  <defs
     id="defs4" />
  <metadata
     id="metadata7">
    <rdf:RDF>
      <cc:Work
         rdf:about="">
        <dc:format>image/svg+xml</dc:format>
        <dc:type
           rdf:resource="http://purl.org/dc/dcmitype/StillImage" />
        <dc:title></dc:title>
      </cc:Work>
    </rdf:RDF>
  </metadata>
  <g
     transform="translate(-102.986,-429.83311)"
     id="layer1">
    <g
       style="fill:none;stroke:#0078e7;stroke-opacity:1"
       transform="matrix(0.21826814,0,0,0.21826814,58.44871,367.50424)"
       id="g3795">
      <path
         style="fill:none;stroke:#0078e7;stroke-width:32;stroke-linecap:round;stroke-miterlimit:4;stroke-dasharray:none;stroke-opacity:1"
         id="path2987"
         d="m 389.28572,361.76789 a 112.85714,112.85714 0 0 1 52.58305,126.94674 112.85714,112.85714 0 0 1 -109.01165,83.64754 112.85714,112.85714 0 0 1 -109.01161,-83.6476 112.85714,112.85714 0 0 1 52.58312,-126.94671" />
      <path
         style="fill:none;stroke:#0078e7;stroke-width:32;stroke-linecap:round;stroke-linejoin:miter;stroke-miterlimit:4;stroke-dasharray:none;stroke-opacity:1"
         d="M 332.85715,455.21933 V 301.79075"
         id="path3759" />
      <path
         style="fill:none;stroke:#0078e7;stroke-width:32;stroke-linecap:round;stroke-linejoin:miter;stroke-miterlimit:4;stroke-dasharray:none;stroke-opacity:1"
         d="m 290,302.36218 h 85.71429"
         id="path3763" />
      <path
         style="fill:none;stroke:#0078e7;stroke-width:32;stroke-linecap:round;stroke-linejoin:miter;stroke-miterlimit:4;stroke-dasharray:none;stroke-opacity:1"
         d="m 290,643.50504 h 85.71429"
         id="path3763-4" />
    </g>
    <g
       id="flowRoot3783"
       style="font-style:normal;font-variant:normal;font-weight:normal;font-stretch:normal;font-size:72px;line-height:125%;font-family:'Nimbus Sans L';-inkscape-font-specification:'Nimbus Sans L';letter-spacing:0px;word-spacing:0px;fill:#000000;fill-opacity:1;stroke:none"
       transform="translate(929.71429,194.28572)">
      <path
         id="path2993"
         style="font-style:italic;font-weight:bold;font-family:Muli;-inkscape-font-specification:'Muli Bold Italic';fill:#0078e7;fill-opacity:1;stroke:#0078e7;stroke-width:1;stroke-miterlimit:4;stroke-opacity:1"
         d="m -749.66016,297.73985 h -6.04687 v -51.1875 h 11.98828 c 1.99217,5e-5 3.93748,0.0938 5.83594,0.28125 1.92185,0.16411 3.73825,0.4688 5.44922,0.91406 1.7109,0.42192 3.28121,1.00786 4.71093,1.75781 1.45309,0.72661 2.69528,1.66411 3.72657,2.8125 1.05464,1.12504 1.87496,2.4727 2.46093,4.04297 0.5859,1.57035 0.87887,3.41019 0.87891,5.51953 -4e-5,2.67191 -0.58598,4.96878 -1.75781,6.89063 -1.14848,1.9219 -2.70707,3.50393 -4.67578,4.74609 -1.94535,1.21877 -4.19535,2.12111 -6.75,2.70703 -2.55472,0.58596 -5.22659,0.87893 -8.01563,0.87891 h -7.80469 v 20.63672 m 0,-45.98438 v 20.10938 h 9.17579 c 1.92185,2e-5 3.70309,-0.18748 5.34375,-0.5625 1.64059,-0.39842 3.04684,-0.99607 4.21875,-1.79297 1.19527,-0.82029 2.12105,-1.85154 2.77734,-3.09375 0.67965,-1.24216 1.01949,-2.73044 1.01953,-4.46485 -4e-5,-2.03902 -0.37504,-3.7148 -1.125,-5.02734 -0.7266,-1.3359 -1.75785,-2.37886 -3.09375,-3.12891 -1.31253,-0.77339 -2.89456,-1.30073 -4.74609,-1.58203 -1.82815,-0.30464 -3.8555,-0.45698 -6.08203,-0.45703 h -7.48829" />
      <path
         id="path2995"
         style="font-style:italic;font-weight:bold;font-family:Muli;-inkscape-font-specification:'Muli Bold Italic';fill:#0078e7;fill-opacity:1;stroke:#0078e7;stroke-width:1;stroke-miterlimit:4;stroke-opacity:1"
         d="m -688.80469,276.32969 -0.0351,-0.49219 c -0.11722,-1.52341 -0.42191,-2.91794 -0.91407,-4.18359 -0.46878,-1.2656 -1.12503,-2.35544 -1.96875,-3.26953 -0.84377,-0.91404 -1.87502,-1.61716 -3.09375,-2.10938 -1.19533,-0.51559 -2.55471,-0.7734 -4.07812,-0.77344 -1.64065,4e-5 -3.11721,0.293 -4.42969,0.87891 -1.31251,0.56253 -2.44923,1.33597 -3.41015,2.32031 -0.93752,0.98441 -1.69924,2.13284 -2.28516,3.44532 -0.58595,1.31252 -0.98439,2.70705 -1.19531,4.18359 h 21.41015 m 4.67578,17.36719 c -1.94534,1.6875 -4.10159,2.91797 -6.46875,3.6914 -2.36721,0.77344 -5.0508,1.16016 -8.05078,1.16016 -2.83595,0 -5.3672,-0.45703 -7.59375,-1.37109 -2.22657,-0.9375 -4.11329,-2.22656 -5.66015,-3.86719 -1.52345,-1.66406 -2.69532,-3.64453 -3.51563,-5.94141 -0.79688,-2.29686 -1.19532,-4.81639 -1.19531,-7.55859 -10e-6,-2.60154 0.39843,-5.05076 1.19531,-7.34766 0.79687,-2.29685 1.95703,-4.31247 3.48047,-6.04687 1.52343,-1.73435 3.37499,-3.10544 5.55469,-4.11328 2.20311,-1.00778 4.71092,-1.51169 7.52344,-1.51172 2.7656,3e-5 5.16794,0.45706 7.20703,1.37109 2.03903,0.89066 3.71481,2.13285 5.02734,3.72656 1.31246,1.57035 2.28512,3.44534 2.91797,5.625 0.65621,2.17971 0.98434,4.5469 0.98437,7.10157 -3e-5,0.25783 -0.0118,0.56251 -0.0351,0.91406 -4e-5,0.32814 -0.0118,0.63283 -0.0352,0.91406 h -27.66797 l 0.10547,1.58203 c 0.14062,1.75783 0.49218,3.3633 1.05469,4.81641 0.58592,1.45313 1.3828,2.70704 2.39062,3.76172 1.0078,1.05469 2.22655,1.875 3.65625,2.46093 1.45311,0.56251 3.10545,0.84376 4.95704,0.84375 2.48435,1e-5 4.75778,-0.43359 6.82031,-1.30078 2.06247,-0.86718 3.91403,-2.10936 5.55469,-3.72656 l 1.79296,4.81641" />
      <path
         id="path2997"
         style="font-style:italic;font-weight:bold;font-family:Muli;-inkscape-font-specification:'Muli Bold Italic';fill:#0078e7;fill-opacity:1;stroke:#0078e7;stroke-width:1;stroke-miterlimit:4;stroke-opacity:1"
         d="m -647.28516,297.73985 -0.14062,-5.16797 c -1.52347,2.15625 -3.293,3.6914 -5.30859,4.60547 -1.99222,0.91406 -4.37112,1.37109 -7.13672,1.37109 -2.78908,0 -5.21486,-0.48047 -7.27735,-1.44141 -2.03907,-0.98437 -3.72657,-2.32031 -5.0625,-4.00781 -1.33594,-1.68749 -2.33203,-3.65624 -2.98828,-5.90625 -0.65625,-2.27342 -0.98438,-4.68748 -0.98437,-7.24219 -10e-6,-2.53123 0.33984,-4.94529 1.01953,-7.24218 0.70312,-2.32029 1.74609,-4.35935 3.1289,-6.11719 1.40624,-1.78122 3.14062,-3.18747 5.20313,-4.21875 2.08592,-1.05465 4.49998,-1.582 7.24219,-1.58203 2.60154,3e-5 4.93357,0.49222 6.99609,1.47656 2.08591,0.98441 3.80856,2.40238 5.16797,4.25391 v -21.23438 h 5.80078 v 43.45313 c 0.0234,1.40625 0.0468,2.91797 0.0703,4.53515 0.0468,1.61719 0.0937,3.10547 0.14063,4.46485 h -5.8711 m -11.67187,-3.83204 c 1.89841,1e-5 3.56247,-0.36327 4.99219,-1.08984 1.45309,-0.74999 2.66012,-1.79296 3.62109,-3.12891 0.98434,-1.35936 1.72263,-2.98827 2.21484,-4.88671 0.49216,-1.89843 0.73825,-4.0078 0.73829,-6.32813 -4e-5,-1.94529 -0.26957,-3.71482 -0.8086,-5.30859 -0.51565,-1.59373 -1.26565,-2.9531 -2.25,-4.07813 -0.9844,-1.14841 -2.16799,-2.02731 -3.55078,-2.63672 -1.38284,-0.63278 -2.92971,-0.94918 -4.64062,-0.94922 -1.99221,4e-5 -3.71487,0.38675 -5.16797,1.16016 -1.42971,0.77347 -2.6133,1.81644 -3.55078,3.12891 -0.93752,1.31252 -1.62892,2.84768 -2.07422,4.60547 -0.44533,1.73439 -0.66798,3.57423 -0.66797,5.51953 -10e-6,1.82814 0.18749,3.58595 0.5625,5.27343 0.39842,1.68751 1.03124,3.17579 1.89844,4.46485 0.89061,1.28907 2.03904,2.32032 3.44531,3.09375 1.42967,0.77344 3.17576,1.16016 5.23828,1.16015" />
      <path
         id="path2999"
         style="font-style:italic;font-weight:bold;font-family:Muli;-inkscape-font-specification:'Muli Bold Italic';fill:#0078e7;fill-opacity:1;stroke:#0078e7;stroke-width:1;stroke-miterlimit:4;stroke-opacity:1"
         d="m -615.39844,260.79063 c 1.47654,3e-5 2.8242,0.14066 4.04297,0.42187 1.21873,0.25785 2.34372,0.63285 3.375,1.125 1.03122,0.49222 1.98044,1.1016 2.84766,1.82813 0.86715,0.72659 1.67575,1.5469 2.42578,2.46093 l 0.21094,-4.95703 h 5.73047 l -0.14063,8.89453 v 27.17579 h -5.80078 l 0.0703,-5.0625 c -0.56253,0.75 -1.27737,1.48828 -2.14453,2.21484 -0.84378,0.70313 -1.80472,1.32422 -2.88281,1.86328 -1.07815,0.53906 -2.27347,0.97266 -3.58594,1.30078 -1.28909,0.32813 -2.64846,0.49219 -4.07812,0.49219 -2.01565,0 -3.84377,-0.26953 -5.48438,-0.80859 -1.64064,-0.51563 -3.10548,-1.23047 -4.39453,-2.14454 -1.28907,-0.93749 -2.41407,-2.02734 -3.375,-3.26953 -0.93751,-1.24218 -1.71094,-2.57811 -2.32031,-4.00781 -0.60938,-1.42968 -1.06641,-2.90624 -1.3711,-4.42969 -0.30469,-1.54686 -0.45703,-3.07029 -0.45703,-4.57031 0,-2.32029 0.35156,-4.59373 1.05469,-6.82031 0.72656,-2.22654 1.80468,-4.207 3.23437,-5.94141 1.45312,-1.73434 3.25781,-3.12887 5.41407,-4.18359 2.17967,-1.05465 4.72263,-1.582 7.6289,-1.58203 m 0.66797,33.11718 c 1.6406,1e-5 3.17576,-0.32812 4.60547,-0.98437 1.4531,-0.67968 2.71872,-1.66406 3.79688,-2.95313 1.10153,-1.31249 1.96871,-2.92967 2.60156,-4.85156 0.65621,-1.9453 0.99606,-4.18358 1.01953,-6.71484 -3e-5,-1.89842 -0.293,-3.63279 -0.87891,-5.20313 -0.56253,-1.57028 -1.37112,-2.92966 -2.42578,-4.07812 -1.05472,-1.14841 -2.34378,-2.03903 -3.86719,-2.67188 -1.50002,-0.63278 -3.18752,-0.94918 -5.0625,-0.94922 -1.4297,4e-5 -2.71876,0.19925 -3.86718,0.59766 -1.14846,0.37503 -2.16799,0.90237 -3.0586,1.58203 -0.89064,0.67972 -1.66407,1.47659 -2.32031,2.39063 -0.65626,0.91409 -1.19532,1.89846 -1.61719,2.95312 -0.42188,1.03128 -0.73829,2.1094 -0.94922,3.23438 -0.18751,1.12502 -0.28126,2.2383 -0.28125,3.33984 -10e-6,1.07814 0.0703,2.19142 0.21094,3.33984 0.16405,1.12502 0.42187,2.21486 0.77344,3.26954 0.35155,1.05469 0.83202,2.05079 1.44141,2.98828 0.60936,0.9375 1.35936,1.75782 2.25,2.46093 0.91404,0.6797 1.99217,1.23048 3.23437,1.65235 1.26561,0.39844 2.73045,0.59766 4.39453,0.59765" />
      <path
         id="path3001"
         style="font-style:italic;font-weight:bold;font-family:Muli;-inkscape-font-specification:'Muli Bold Italic';fill:#0078e7;fill-opacity:1;stroke:#0078e7;stroke-width:1;stroke-miterlimit:4;stroke-opacity:1"
         d="m -580.41797,245.28672 v 52.45313 h -5.80078 v -52.45313 h 5.80078" />
      <path
         id="path3003"
         style="font-family:Muli;-inkscape-font-specification:'Muli Bold Italic';fill:#008000;stroke:#008000"
         d="m -561.22266,297.73985 h -6.04687 v -51.1875 h 11.98828 c 1.99217,5e-5 3.93748,0.0938 5.83594,0.28125 1.92185,0.16411 3.73825,0.4688 5.44922,0.91406 1.7109,0.42192 3.28121,1.00786 4.71093,1.75781 1.45309,0.72661 2.69528,1.66411 3.72657,2.8125 1.05464,1.12504 1.87496,2.4727 2.46093,4.04297 0.5859,1.57035 0.87887,3.41019 0.87891,5.51953 -4e-5,2.67191 -0.58598,4.96878 -1.75781,6.89063 -1.14848,1.9219 -2.70707,3.50393 -4.67578,4.74609 -1.94535,1.21877 -4.19535,2.12111 -6.75,2.70703 -2.55472,0.58596 -5.22659,0.87893 -8.01563,0.87891 h -7.80469 v 20.63672 m 0,-45.98438 v 20.10938 h 9.17579 c 1.92185,2e-5 3.70309,-0.18748 5.34375,-0.5625 1.64059,-0.39842 3.04684,-0.99607 4.21875,-1.79297 1.19527,-0.82029 2.12105,-1.85154 2.77734,-3.09375 0.67965,-1.24216 1.01949,-2.73044 1.01953,-4.46485 -4e-5,-2.03902 -0.37504,-3.7148 -1.125,-5.02734 -0.7266,-1.3359 -1.75785,-2.37886 -3.09375,-3.12891 -1.31253,-0.77339 -2.89456,-1.30073 -4.74609,-1.58203 -1.82815,-0.30464 -3.8555,-0.45698 -6.08203,-0.45703 h -7.48829" />
      <path
         id="path3005"
         style="font-family:Muli;-inkscape-font-specification:'Muli Bold Italic';fill:#008000;stroke:#008000"
         d="m -487.71094,254.88438 c -3.58597,-2.69527 -7.76956,-4.04293 -12.55078,-4.04297 -2.15628,4e-5 -4.12502,0.29301 -5.90625,0.8789 -1.78127,0.56255 -3.38674,1.35942 -4.8164,2.39063 -1.40627,1.00785 -2.63674,2.20317 -3.69141,3.58594 -1.03127,1.38285 -1.89845,2.88285 -2.60156,4.5 -0.6797,1.61722 -1.19533,3.32815 -1.54688,5.13281 -0.32813,1.78128 -0.4922,3.57424 -0.49219,5.37891 -10e-6,2.76564 0.36327,5.40236 1.08985,7.91015 0.72655,2.48439 1.83983,4.6758 3.33984,6.57422 1.49999,1.87501 3.39842,3.37501 5.69531,4.5 2.29686,1.10157 5.0156,1.65235 8.15625,1.65234 2.88278,1e-5 5.58981,-0.41015 8.1211,-1.23046 2.55465,-0.84375 4.79292,-2.10937 6.71484,-3.79688 l 2.03906,4.95703 c -2.17973,1.75782 -4.75785,3.08203 -7.73437,3.97266 -2.9766,0.86718 -6.32816,1.30078 -10.05469,1.30078 -3.86721,0 -7.27736,-0.67969 -10.23047,-2.03906 -2.95314,-1.35938 -5.43751,-3.21094 -7.45312,-5.55469 -2.01564,-2.36718 -3.53907,-5.10936 -4.57031,-8.22656 -1.03126,-3.14061 -1.54688,-6.49217 -1.54688,-10.05469 0,-2.41404 0.24609,-4.75778 0.73828,-7.03125 0.51562,-2.2734 1.2539,-4.40621 2.21485,-6.39844 0.98436,-2.01558 2.19139,-3.85542 3.62109,-5.51953 1.42967,-1.68745 3.05858,-3.12886 4.88672,-4.32422 1.85154,-1.19526 3.8906,-2.12104 6.11719,-2.77734 2.22653,-0.67964 4.64059,-1.01948 7.24218,-1.01953 3.18747,5e-5 6.03512,0.43364 8.54297,1.30078 2.50777,0.8438 4.82808,2.21489 6.96094,4.11328 l -2.28516,3.86719" />
    </g>
  </g>
</svg>
